country,ip_address,bytes_consumed,domain
Brazil,185.178.93.230,210,hc360.com
Norway,237.164.240.77,7767,phoca.cz
Russia,236.245.178.232,8182,time.com
Ecuador,216.72.106.57,9624,de.vu
China,28.92.96.145,4191,flickr.com
Indonesia,212.136.81.250,8516,google.fr
Paraguay,65.40.241.242,4900,wiley.com
Brazil,161.166.216.118,4432,issuu.com
Indonesia,232.246.82.223,6982,deviantart.com
Portugal,11.28.60.194,4337,parallels.com
Kuwait,94.50.177.112,2025,issuu.com
Luxembourg,117.171.184.0,7642,ustream.tv
Cyprus,180.139.204.102,8412,narod.ru
Russia,122.202.196.56,2759,columbia.edu
Cambodia,226.71.35.171,6508,alexa.com
Philippines,6.132.101.7,756,bluehost.com
China,126.246.33.12,538,gizmodo.com
Japan,251.197.32.31,3744,businesswire.com
Indonesia,81.120.89.130,8097,dion.ne.jp
Peru,28.42.23.172,2632,livejournal.com
Central African Republic,94.229.79.54,4929,flickr.com
Thailand,103.13.212.149,2007,imageshack.us
Philippines,82.230.226.212,254,netlog.com
China,158.35.17.164,4324,nhs.uk
Finland,167.102.99.174,4964,comsenz.com
Indonesia,253.73.70.145,7677,163.com
Costa Rica,21.166.114.179,4372,infoseek.co.jp
Madagascar,236.195.132.160,6579,soup.io
Canada,112.32.178.103,456,t.co
China,95.64.40.68,7170,rediff.com
Uzbekistan,186.20.67.187,2107,shop-pro.jp
Japan,64.230.112.23,1748,chicagotribune.com
China,120.20.11.162,5153,shinystat.com
Brazil,216.238.198.7,6250,scribd.com
Brazil,163.4.34.47,5967,yahoo.com
China,23.24.26.207,4886,upenn.edu
Bosnia and Herzegovina,105.63.193.253,7468,usnews.com
Sweden,91.237.112.199,3749,wikispaces.com
Malaysia,79.43.167.10,4558,is.gd
Peru,137.154.44.220,8052,merriam-webster.com
Poland,164.157.98.91,8622,noaa.gov
Madagascar,165.228.206.79,8025,1688.com
Tanzania,61.97.196.217,1873,sitemeter.com
Indonesia,193.94.108.162,8834,aol.com
China,174.87.36.245,9008,moonfruit.com
France,213.19.139.206,3405,dot.gov
Chad,211.143.89.208,6703,xinhuanet.com
China,7.49.166.38,4675,washington.edu
Russia,32.63.193.212,5108,bloomberg.com
Albania,69.91.94.233,1505,clickbank.net
Gabon,149.29.238.248,2014,state.gov
Netherlands,55.53.228.20,8874,ezinearticles.com
Malaysia,104.64.103.226,3235,blog.com
Netherlands,12.228.176.246,1121,cnn.com
Russia,191.187.46.23,680,usa.gov
France,204.132.52.58,2268,lycos.com
Poland,84.116.181.202,95,google.com.hk
Poland,124.197.52.25,408,google.cn
China,2.181.169.36,2739,mysql.com
China,198.70.221.88,2126,irs.gov
Vietnam,251.162.178.119,216,miitbeian.gov.cn
Indonesia,88.206.185.129,1598,qq.com
Indonesia,205.115.130.172,3089,free.fr
Russia,80.59.140.75,5210,businesswire.com
Thailand,7.32.253.123,1007,state.gov
Japan,142.8.146.47,547,zimbio.com
Indonesia,141.67.181.241,8181,arstechnica.com
Finland,37.197.41.48,7327,reuters.com
Latvia,158.103.224.37,9776,cpanel.net
Russia,229.165.237.173,5880,rakuten.co.jp
China,23.217.91.151,7300,berkeley.edu
Brazil,39.238.81.129,1948,abc.net.au
Serbia,38.146.238.127,5195,patch.com
Italy,228.110.18.40,2638,europa.eu
Peru,208.154.97.178,3155,nih.gov
Brazil,54.199.134.240,7416,homestead.com
Indonesia,140.135.145.38,7192,vkontakte.ru
Pakistan,73.114.174.135,7698,squarespace.com
Russia,111.176.87.115,9450,state.gov
China,183.204.90.122,5134,gnu.org
Poland,69.223.187.250,2507,chicagotribune.com
Malaysia,192.208.111.109,9825,techcrunch.com
Peru,129.242.50.6,8031,statcounter.com
Sweden,134.51.49.234,2855,examiner.com
Indonesia,28.199.161.64,9304,histats.com
Sweden,180.217.216.56,9374,abc.net.au
Philippines,201.218.182.233,5942,last.fm
Ukraine,183.127.72.166,2607,printfriendly.com
Kazakhstan,185.53.213.90,3976,sfgate.com
North Korea,208.19.124.15,7803,chicagotribune.com
France,141.3.11.40,905,fastcompany.com
France,214.180.119.160,859,last.fm
Sudan,169.79.180.194,9414,hostgator.com
Netherlands,55.42.125.15,8267,home.pl
Poland,239.29.213.128,3810,bigcartel.com
Brazil,88.159.193.20,2539,bbb.org
Colombia,232.150.130.29,8842,redcross.org
Indonesia,4.238.78.221,6723,marriott.com
Cuba,208.231.254.63,9548,goodreads.com
Brazil,22.122.1.222,3323,barnesandnoble.com
Brazil,103.9.158.175,6683,statcounter.com
China,56.31.199.63,6729,51.la
Spain,25.47.55.184,6309,google.nl
China,146.148.242.177,6834,usda.gov
Thailand,30.226.166.183,8877,lulu.com
Sweden,162.251.35.170,6368,latimes.com
Sweden,179.16.213.89,5637,jiathis.com
Canada,93.228.142.210,5674,alexa.com
Greece,233.216.15.41,2505,t.co
Indonesia,1.218.219.161,1078,webs.com
Thailand,227.89.246.47,4836,1und1.de
Russia,111.142.40.48,791,tmall.com
China,55.72.24.73,5774,cnbc.com
China,248.38.61.27,2634,dailymotion.com
Russia,118.207.121.99,7396,rakuten.co.jp
China,59.113.236.227,4418,craigslist.org
United States,242.170.153.140,5431,1688.com
Indonesia,216.18.35.68,5555,comcast.net
Venezuela,48.155.45.191,9956,oaic.gov.au
China,218.22.76.117,1240,amazon.de
China,128.223.154.199,1495,github.com
Bulgaria,183.191.12.210,7251,tinypic.com
Greece,239.177.251.95,7786,google.co.jp
China,102.125.38.221,4174,howstuffworks.com
Philippines,198.10.45.24,1376,shop-pro.jp
New Zealand,231.245.201.4,6251,state.gov
China,5.97.194.154,4097,furl.net
Cambodia,183.73.123.38,9839,weebly.com
Portugal,189.105.227.86,1647,vimeo.com
China,120.206.149.216,806,paypal.com
Philippines,55.124.163.240,5317,adobe.com
Ecuador,103.184.193.158,173,mtv.com
Indonesia,245.87.53.248,4979,linkedin.com
Portugal,77.9.169.165,3241,opensource.org
Russia,24.154.139.175,696,spiegel.de
China,197.139.127.145,6381,diigo.com
China,159.166.215.99,5601,ameblo.jp
China,0.218.120.83,2457,barnesandnoble.com
China,141.51.187.109,5345,booking.com
Philippines,96.12.67.133,1140,123-reg.co.uk
Portugal,148.209.108.193,9479,fda.gov
Albania,1.145.77.223,3911,japanpost.jp
Democratic Republic of the Congo,5.16.87.159,9915,bbb.org
South Africa,232.191.105.51,500,discovery.com
Japan,39.125.172.2,8985,chicagotribune.com
Colombia,186.126.184.42,9682,vistaprint.com
France,71.40.157.126,4656,wired.com
Tanzania,104.93.131.235,8455,yale.edu
Indonesia,111.229.211.160,4773,freewebs.com
Poland,67.47.14.16,5731,xing.com
Indonesia,53.138.197.110,340,t.co
Indonesia,197.32.201.173,1257,qq.com
Sweden,202.189.25.185,8609,w3.org
Philippines,28.21.209.210,3529,irs.gov
Russia,128.56.91.98,6317,nytimes.com
Portugal,246.228.125.150,6178,bing.com
Afghanistan,144.150.177.146,5322,noaa.gov
China,140.148.124.130,5620,amazon.co.uk
Ecuador,207.78.14.34,3234,nasa.gov
Ethiopia,0.22.241.220,7692,amazon.co.jp
Poland,168.132.135.168,4384,youku.com
China,40.211.75.249,8920,delicious.com
Norway,208.51.83.57,6315,xing.com
Bulgaria,47.71.153.111,1667,nyu.edu
China,199.105.107.147,6985,chronoengine.com
China,255.242.121.151,7043,dion.ne.jp
Russia,165.30.150.219,4426,instagram.com
Tunisia,34.66.18.4,4853,godaddy.com
Costa Rica,138.120.183.228,3577,weibo.com
Brazil,150.143.74.199,4214,europa.eu
Haiti,242.82.25.71,7185,ocn.ne.jp
Czech Republic,252.173.232.152,9921,paginegialle.it
Malaysia,153.50.139.115,2768,engadget.com
France,140.54.131.83,2382,parallels.com
Indonesia,132.46.89.1,5494,google.ca
China,201.213.251.36,116,trellian.com
Canada,47.184.254.203,9313,cbc.ca
Macedonia,37.54.54.70,4353,washingtonpost.com
Nepal,195.111.184.59,7211,drupal.org
Philippines,24.208.129.100,8164,sphinn.com
Portugal,179.245.24.39,7544,surveymonkey.com
China,52.161.222.43,5237,addtoany.com
Philippines,253.205.70.183,3419,about.me
Indonesia,173.249.72.148,2120,senate.gov
Russia,255.219.54.1,1096,wikipedia.org
Indonesia,212.59.231.194,9661,cpanel.net
Madagascar,90.7.179.61,2614,amazon.co.uk
Philippines,158.68.49.10,1840,bloglines.com
Ukraine,129.155.178.247,4844,yale.edu
Argentina,112.25.31.234,2812,forbes.com
Sweden,57.36.135.81,1828,t-online.de
Russia,197.5.151.42,7034,symantec.com
Spain,120.144.0.25,3248,shinystat.com
Brazil,199.48.129.40,4404,abc.net.au
Syria,129.55.95.139,3179,cmu.edu
Pakistan,188.235.30.61,1279,newsvine.com
Egypt,236.91.15.143,6555,sun.com
Venezuela,15.151.208.60,2493,buzzfeed.com
Tanzania,228.244.67.172,6718,wiley.com
China,135.216.234.183,4373,linkedin.com
Brazil,80.140.229.162,423,cyberchimps.com
Portugal,173.142.185.248,6217,princeton.edu
Poland,70.110.136.218,1892,de.vu
Thailand,104.66.13.66,935,dion.ne.jp
China,11.102.249.245,7837,loc.gov
China,223.130.55.7,3695,instagram.com
China,179.115.75.132,7375,theguardian.com
South Africa,62.54.156.233,5619,answers.com
Peru,74.122.75.109,5819,furl.net
China,226.16.173.171,698,simplemachines.org
Portugal,238.112.115.96,7140,wikispaces.com
Argentina,51.254.128.222,5364,engadget.com
Jamaica,113.57.46.171,8872,blog.com
Indonesia,49.198.186.95,9940,howstuffworks.com
Thailand,82.76.156.128,5223,businessweek.com
Portugal,109.177.49.236,8017,1688.com
Indonesia,18.76.153.144,9786,ameblo.jp
Bermuda,10.130.32.125,6604,reddit.com
Russia,89.57.200.57,5371,huffingtonpost.com
Bahrain,150.127.29.31,6789,webeden.co.uk
United States,49.0.204.34,8122,mozilla.com
Indonesia,13.16.22.141,3723,ebay.com
Bangladesh,178.233.62.177,6,naver.com
Sweden,162.4.185.49,3561,dyndns.org
Philippines,95.6.132.97,9139,hatena.ne.jp
Argentina,9.75.250.91,7244,youku.com
Sweden,126.186.227.45,9968,amazon.co.jp
Ukraine,105.100.245.211,9819,netscape.com
Russia,250.234.59.224,5037,artisteer.com
Peru,207.192.248.206,4055,ning.com
Indonesia,79.228.132.60,1683,mozilla.com
China,210.245.39.158,1619,exblog.jp
Finland,200.92.113.242,8266,nytimes.com
Ethiopia,165.28.116.146,4723,google.co.jp
Japan,241.60.151.100,6405,meetup.com
China,6.190.93.213,9744,dagondesign.com
Sweden,94.26.146.23,587,chron.com
China,178.228.222.184,685,youku.com
Honduras,151.86.219.209,3052,addtoany.com
France,230.156.169.25,6732,un.org
Finland,117.56.31.83,9820,cbsnews.com
Indonesia,81.211.198.235,184,google.co.jp
United States,121.75.151.201,302,cnn.com
China,126.246.15.247,9253,behance.net
Indonesia,195.139.95.203,5990,qq.com
Canada,49.46.252.145,2913,answers.com
China,44.212.2.224,3619,de.vu
Cyprus,17.47.138.65,8325,nps.gov
Indonesia,5.37.240.223,2211,noaa.gov
Australia,84.109.166.44,674,nifty.com
Djibouti,160.173.129.26,4770,photobucket.com
Peru,126.74.153.16,8819,spiegel.de
South Africa,68.26.214.195,9579,weebly.com
South Africa,152.157.30.12,8748,senate.gov
China,44.115.115.128,2075,shareasale.com
Luxembourg,12.51.220.229,5811,loc.gov
Philippines,105.174.10.158,2047,unicef.org
Portugal,227.117.69.97,5335,digg.com
Brazil,3.167.192.1,9819,telegraph.co.uk
Russia,195.114.123.138,125,who.int
Argentina,67.247.159.15,5995,diigo.com
Madagascar,160.83.52.105,8534,eventbrite.com
France,27.101.162.163,7901,ning.com
Portugal,122.233.27.42,9297,shutterfly.com
Russia,103.62.53.137,3792,nsw.gov.au
Indonesia,253.155.65.245,382,mail.ru
Indonesia,248.177.163.87,6436,google.it
France,65.243.114.181,6351,nationalgeographic.com
Venezuela,141.142.1.188,2700,stanford.edu
Indonesia,119.215.145.247,9385,slashdot.org
Venezuela,143.161.1.243,5988,gizmodo.com
China,166.233.253.150,5848,marketwatch.com
South Africa,208.130.237.89,7248,ox.ac.uk
Indonesia,14.12.48.44,5885,altervista.org
Turkey,2.141.223.57,8746,tamu.edu
Russia,119.177.159.242,4470,tinypic.com
Peru,149.64.120.240,3950,examiner.com
China,184.195.250.124,3451,smh.com.au
Sudan,2.194.37.156,6239,npr.org
Portugal,123.142.75.122,8590,exblog.jp
Thailand,188.235.225.151,915,youtu.be
China,88.173.143.245,6516,nydailynews.com
France,239.18.11.250,6615,bbc.co.uk
China,27.68.170.39,5471,g.co
Czech Republic,75.34.173.40,6203,engadget.com
United States,43.57.162.159,5992,sciencedirect.com
Uzbekistan,198.140.35.226,9408,sogou.com
Serbia,3.8.207.181,8236,wix.com
Yemen,65.58.157.168,8654,intel.com
China,26.80.68.158,3289,ovh.net
Indonesia,190.243.34.23,5961,google.com.hk
Russia,58.70.73.79,2969,dion.ne.jp
Ukraine,151.226.213.81,2778,drupal.org
Indonesia,127.250.235.220,6867,weebly.com
China,143.79.48.50,9721,huffingtonpost.com
Indonesia,109.185.3.234,7180,gizmodo.com
China,166.70.167.148,1031,webmd.com
Dominican Republic,51.249.66.27,6191,foxnews.com
Thailand,132.135.156.147,7917,nasa.gov
Thailand,55.133.66.42,8653,marriott.com
Guatemala,137.42.162.46,7160,huffingtonpost.com
Indonesia,239.10.214.43,6214,wisc.edu
United States,30.33.238.154,7596,oakley.com
Malawi,175.68.117.118,6966,ted.com
Czech Republic,227.249.106.102,1955,illinois.edu
Ukraine,190.138.27.67,6773,usnews.com
South Africa,140.226.114.245,6545,theatlantic.com
Sweden,247.150.175.63,7890,bloomberg.com
Indonesia,113.147.195.90,1975,mapquest.com
Malawi,3.252.194.150,9036,reuters.com
Thailand,121.206.243.148,4703,time.com
China,249.184.253.134,8377,bigcartel.com
Japan,192.233.236.187,2296,qq.com
China,253.26.26.170,2149,usatoday.com
Russia,43.4.61.234,8512,fc2.com
Indonesia,41.120.148.182,6500,springer.com
Malaysia,190.81.89.135,7170,nsw.gov.au
Ethiopia,234.166.54.35,6002,guardian.co.uk
Russia,157.155.124.167,228,google.com.hk
China,58.161.118.142,6241,phoca.cz
China,11.191.166.81,5935,google.nl
Ukraine,172.70.46.86,924,gizmodo.com
China,65.247.147.215,1355,hp.com
Mongolia,123.237.99.121,1795,japanpost.jp
Indonesia,62.255.96.144,7431,surveymonkey.com
East Timor,17.71.195.159,4285,weebly.com
Egypt,132.8.15.228,89,macromedia.com
China,249.166.133.88,6972,cafepress.com
Indonesia,162.247.212.132,4601,gnu.org
Indonesia,246.166.82.149,5909,hibu.com
Colombia,102.22.197.76,3404,statcounter.com
China,80.2.28.73,6698,rediff.com
Morocco,234.185.62.7,7673,last.fm
Russia,93.7.197.25,7755,msn.com
Indonesia,144.212.26.10,7174,deliciousdays.com
Colombia,247.52.29.169,1178,bandcamp.com
Nigeria,150.24.44.116,9971,woothemes.com
Philippines,192.106.47.76,1303,quantcast.com
Poland,214.213.214.245,5167,wsj.com
China,230.2.253.162,6314,tripadvisor.com
Azerbaijan,173.241.239.202,6467,fema.gov
Poland,76.81.231.154,6679,godaddy.com
Peru,81.226.182.103,2163,usda.gov
China,34.199.117.166,1433,salon.com
Saint Kitts and Nevis,178.56.34.17,1162,google.ru
Indonesia,205.110.227.170,5380,creativecommons.org
Portugal,3.141.103.193,8426,webeden.co.uk
Albania,178.204.254.26,6742,stanford.edu
Russia,113.152.108.162,2130,clickbank.net
Colombia,179.94.86.38,1692,purevolume.com
Nigeria,90.45.215.231,9794,vk.com
United States,168.108.108.242,4714,last.fm
France,84.41.12.220,7479,nymag.com
Brazil,154.87.180.136,5547,springer.com
Japan,104.222.172.2,8936,freewebs.com
Philippines,228.186.6.41,4302,usatoday.com
Dominican Republic,76.85.128.92,18,usatoday.com
Guatemala,244.84.62.229,7547,simplemachines.org
Russia,113.43.30.90,2429,sciencedaily.com
China,35.213.206.112,7347,nsw.gov.au
Indonesia,138.133.183.38,2463,npr.org
Oman,91.91.79.71,8666,smugmug.com
Sweden,138.112.244.179,7690,nationalgeographic.com
Philippines,211.86.145.252,4108,furl.net
China,84.120.199.240,3147,businesswire.com
Philippines,85.249.7.53,6483,google.com.au
Honduras,170.141.141.200,3532,goodreads.com
Indonesia,205.31.240.98,4633,ifeng.com
Philippines,90.19.233.84,447,cnet.com
South Sudan,98.137.239.133,4455,google.ca
China,223.81.78.192,6201,nih.gov
China,187.201.96.171,7778,mtv.com
Panama,143.12.136.232,5874,marketwatch.com
Iraq,134.117.117.0,9252,squidoo.com
Indonesia,205.137.174.15,7525,ucsd.edu
Peru,248.152.168.140,3172,miitbeian.gov.cn
Brazil,47.190.191.62,9759,ifeng.com
Russia,206.66.125.47,4920,mapy.cz
Philippines,191.81.71.3,7420,reverbnation.com
France,143.104.81.11,3755,opera.com
Indonesia,193.46.28.150,1819,nba.com
Haiti,73.108.125.106,6950,technorati.com
Malaysia,224.232.30.63,4768,vk.com
United States,151.198.96.128,4752,whitehouse.gov
China,96.190.128.28,6953,fotki.com
Ecuador,71.137.160.135,978,imgur.com
Thailand,119.210.212.105,5220,telegraph.co.uk
Sweden,64.19.216.95,8557,woothemes.com
Peru,29.65.91.142,2329,microsoft.com
Japan,140.133.234.177,9004,lycos.com
Saudi Arabia,235.0.45.237,1274,cmu.edu
Maldives,34.111.30.235,4440,unicef.org
Russia,253.121.252.242,9560,edublogs.org
Indonesia,156.22.195.243,9965,cbsnews.com
Zambia,95.121.3.34,6765,gmpg.org
Philippines,138.49.8.106,7360,usnews.com
Ivory Coast,190.129.229.46,3994,cbslocal.com
China,199.5.158.123,5580,sun.com
South Africa,124.161.184.186,8599,nature.com
Portugal,68.53.87.108,6206,hubpages.com
Canada,83.233.232.78,2972,qq.com
Philippines,41.118.31.224,3174,tiny.cc
Guatemala,201.8.235.220,2439,bloglovin.com
United States,131.166.127.223,6864,independent.co.uk
Brazil,192.121.171.34,1951,princeton.edu
Greece,102.61.78.19,6905,bandcamp.com
Brazil,58.171.66.238,503,apple.com
Macedonia,7.209.59.11,5675,xing.com
Azerbaijan,150.161.128.207,133,google.com
Philippines,56.153.64.231,7341,exblog.jp
Thailand,27.130.62.179,8482,sohu.com
China,132.61.147.168,8663,dropbox.com
Poland,220.123.183.27,7432,japanpost.jp
France,101.88.130.11,379,smugmug.com
Turkmenistan,48.96.219.62,2776,tumblr.com
China,98.159.196.188,1889,dailymotion.com
Uruguay,224.117.219.62,1948,naver.com
Argentina,42.73.234.252,3238,lycos.com
Comoros,193.65.57.118,3450,yolasite.com
China,108.88.233.159,4198,netscape.com
Russia,116.116.141.50,2268,google.com.au
Latvia,230.96.39.130,2697,theatlantic.com
Russia,145.98.127.113,2917,samsung.com
Belarus,223.60.125.58,9944,macromedia.com
Brazil,42.101.204.230,4318,gov.uk
Brazil,31.158.162.78,1565,macromedia.com
Uruguay,7.79.187.157,5814,about.me
Russia,242.175.108.189,8918,purevolume.com
Portugal,77.90.13.201,6918,illinois.edu
France,50.73.181.65,2531,usgs.gov
Philippines,9.204.63.230,7324,hatena.ne.jp
Honduras,20.62.166.198,7481,ebay.co.uk
Azerbaijan,145.196.37.5,675,dedecms.com
China,127.174.203.95,7135,facebook.com
Czech Republic,16.154.68.9,1067,google.com.hk
Portugal,239.115.183.52,7210,youtube.com
Luxembourg,33.205.15.240,9936,who.int
Philippines,176.253.23.120,9524,nsw.gov.au
Morocco,143.218.31.20,6583,seesaa.net
China,4.103.241.179,1714,unicef.org
Indonesia,252.47.169.67,1732,admin.ch
Niger,72.15.177.210,6892,gravatar.com
Afghanistan,105.25.230.16,6654,blogger.com
Japan,188.120.125.88,7708,sogou.com
China,157.141.219.101,4277,ustream.tv
Indonesia,240.251.183.122,727,salon.com
Cambodia,56.34.136.179,5281,woothemes.com
South Africa,233.146.233.251,9510,over-blog.com
Poland,159.37.52.107,5241,addthis.com
Indonesia,200.83.20.87,9006,clickbank.net
Sweden,240.191.204.193,6453,cnbc.com
China,64.83.149.128,6866,icio.us
Indonesia,22.173.103.159,5157,adobe.com
Japan,242.155.156.165,1520,delicious.com
Philippines,111.8.225.44,2403,google.ca
China,4.69.47.235,4070,jugem.jp
Colombia,140.21.155.1,9486,ezinearticles.com
Slovenia,226.49.21.144,1537,shop-pro.jp
Czech Republic,219.43.74.188,5493,cyberchimps.com
Canada,81.203.185.7,8662,gov.uk
Iran,13.20.38.76,3563,wix.com
Nigeria,69.238.8.252,5796,mashable.com
Indonesia,149.203.184.211,7755,merriam-webster.com
Russia,102.93.207.217,4278,soup.io
Pakistan,95.232.143.243,6053,yolasite.com
Brazil,174.89.234.44,6159,si.edu
Indonesia,93.218.178.7,3113,globo.com
China,246.17.201.109,1289,washington.edu
Finland,212.176.119.23,4902,tuttocitta.it
Vietnam,228.201.32.184,8860,foxnews.com
United States,137.136.7.60,733,bbb.org
Poland,57.215.218.147,5847,youtu.be
Malaysia,10.56.133.239,6161,ibm.com
Philippines,7.188.252.56,6547,smh.com.au
Colombia,196.214.226.216,6054,cisco.com
China,109.69.145.107,8696,jiathis.com
Ethiopia,220.157.159.171,9342,google.cn
South Korea,27.6.80.99,5070,senate.gov
United States,106.35.134.240,6721,shutterfly.com
Indonesia,184.27.217.210,5115,google.com.hk
Guinea,168.105.88.95,5858,cbslocal.com
Jamaica,166.234.19.2,3803,epa.gov
Jordan,244.9.55.54,6981,lycos.com
Sweden,212.170.207.123,4808,businessinsider.com
Sweden,228.204.125.202,6908,hugedomains.com
Liberia,111.152.169.0,6673,reddit.com
Indonesia,218.238.144.227,4630,who.int
Mongolia,235.45.16.222,2072,wisc.edu
Israel,131.152.147.226,6907,utexas.edu
Indonesia,132.112.53.215,7052,networkadvertising.org
China,146.98.172.171,8169,godaddy.com
China,200.23.49.177,5062,tinypic.com
China,86.188.159.183,6165,theguardian.com
Venezuela,158.174.5.139,8577,mapy.cz
China,125.72.49.8,2690,cocolog-nifty.com
Ukraine,228.0.21.249,1222,cloudflare.com
Angola,154.58.225.217,442,4shared.com
Mexico,174.65.97.40,5153,cdbaby.com
Albania,227.248.39.149,9400,dailymail.co.uk
Philippines,4.92.6.191,2393,twitpic.com
Pakistan,54.71.161.83,5655,paginegialle.it
Ukraine,166.125.74.213,2392,aol.com
China,251.246.35.79,9376,netvibes.com
Nigeria,187.1.128.242,514,bbb.org
Greece,63.34.58.197,2609,usgs.gov
China,125.74.238.173,1940,dailymotion.com
China,60.99.173.169,7814,google.ca
China,251.170.228.78,4376,ow.ly
China,137.211.163.37,4598,soup.io
Ireland,210.112.96.161,2315,nature.com
Indonesia,122.204.137.94,3096,go.com
China,246.235.200.178,8146,economist.com
Philippines,130.175.74.88,4207,hc360.com
Serbia,247.27.122.152,1524,bandcamp.com
China,49.54.24.12,2719,businessinsider.com
Sweden,139.115.202.226,9498,eepurl.com
Philippines,64.51.240.35,9500,hp.com
Chile,181.64.190.168,6769,etsy.com
Czech Republic,182.70.247.248,2867,kickstarter.com
Brazil,218.126.43.251,7556,hostgator.com
Philippines,155.97.10.47,7665,dagondesign.com
Greece,35.40.17.189,3875,biblegateway.com
China,212.193.213.30,2980,odnoklassniki.ru
Syria,127.168.41.20,9477,reddit.com
Mauritania,145.184.128.96,753,typepad.com
China,241.31.177.238,8617,epa.gov
Andorra,133.27.68.92,4900,youtube.com
Pakistan,221.143.231.190,5985,reference.com
China,148.24.89.63,3829,wikia.com
Kenya,131.47.158.105,7482,bbc.co.uk
Zimbabwe,240.143.86.104,5115,smh.com.au
Portugal,250.127.205.38,8582,bigcartel.com
Philippines,95.114.238.244,9040,flickr.com
United States,144.221.83.37,9063,businesswire.com
Nigeria,251.217.181.82,3716,edublogs.org
Indonesia,126.22.138.8,741,soundcloud.com
China,58.229.153.122,7876,digg.com
Martinique,150.233.116.72,2440,is.gd
France,80.173.247.67,7588,eventbrite.com
South Korea,73.82.194.71,8419,intel.com
Indonesia,26.32.162.170,3971,jugem.jp
Philippines,62.229.128.210,3916,rakuten.co.jp
China,15.19.205.61,6319,istockphoto.com
El Salvador,25.44.147.19,441,slashdot.org
Colombia,194.137.204.186,4736,amazon.com
Vietnam,152.208.230.215,1210,cafepress.com
United States,250.95.189.191,1697,foxnews.com
Portugal,93.169.135.45,6241,usatoday.com
Japan,70.102.19.46,5014,ehow.com
Indonesia,215.1.7.78,7376,paypal.com
Indonesia,230.190.76.60,403,unesco.org
France,86.64.249.149,6402,hud.gov
Indonesia,49.193.30.209,3079,china.com.cn
Argentina,212.172.171.254,6389,posterous.com
Philippines,213.1.166.223,9468,oracle.com
Madagascar,214.168.183.171,9307,reddit.com
Indonesia,73.18.50.140,8594,nydailynews.com
China,147.137.227.253,2340,china.com.cn
Indonesia,138.208.9.202,9684,huffingtonpost.com
Vietnam,24.118.16.169,387,npr.org
China,164.173.133.251,6122,mozilla.org
Ethiopia,10.254.232.0,3229,naver.com
Russia,49.250.221.109,9042,spiegel.de
China,20.91.241.116,6,examiner.com
China,174.242.157.192,5167,nasa.gov
China,131.225.21.181,2752,cam.ac.uk
Tanzania,103.93.199.249,4144,washingtonpost.com
Finland,239.142.196.99,9722,baidu.com
Uzbekistan,119.220.41.0,4357,yellowbook.com
China,90.93.94.191,9780,mit.edu
China,177.46.20.189,3442,discuz.net
Uganda,215.241.119.220,8876,businesswire.com
Indonesia,67.4.213.54,613,blogtalkradio.com
Djibouti,217.54.45.255,1569,gmpg.org
China,28.129.253.169,8001,elpais.com
Colombia,98.230.128.4,8771,rambler.ru
China,27.219.3.10,4187,acquirethisname.com
Russia,74.28.178.32,1393,macromedia.com
Sweden,82.49.255.177,5592,wix.com
China,92.1.77.162,8035,sohu.com
Armenia,27.128.194.94,9433,unicef.org
China,213.132.249.9,6504,amazonaws.com
Russia,42.138.54.74,967,addthis.com
Indonesia,164.224.231.86,232,opensource.org
Argentina,80.179.102.132,5902,constantcontact.com
South Korea,173.120.135.244,5010,1688.com
Indonesia,170.200.44.210,9520,goo.ne.jp
Afghanistan,9.26.171.114,5432,comsenz.com
Saudi Arabia,249.168.107.37,7035,twitter.com
Ukraine,94.160.196.18,7545,independent.co.uk
Czech Republic,116.110.163.177,328,blogspot.com
Argentina,165.118.111.148,635,blog.com
Greece,211.33.81.110,5507,uiuc.edu
France,199.87.165.171,6530,jiathis.com
Mexico,71.247.80.174,3183,1und1.de
United States,36.233.156.178,7005,cmu.edu
Greece,204.192.185.251,3810,privacy.gov.au
Greece,148.41.177.224,5217,kickstarter.com
Thailand,225.178.195.185,4789,facebook.com
Indonesia,121.118.147.179,7229,wired.com
China,229.228.222.199,9560,cornell.edu
Czech Republic,33.120.251.183,8176,g.co
Poland,18.195.28.74,9346,marriott.com
China,185.222.217.210,4118,alexa.com
Kazakhstan,162.88.139.25,9524,cafepress.com
Peru,138.252.189.231,8422,about.me
France,15.153.139.224,822,furl.net
Belarus,91.171.87.215,4923,upenn.edu
China,97.87.116.244,1066,uiuc.edu
Indonesia,130.151.243.175,7975,bing.com
Philippines,149.15.137.82,7464,ebay.co.uk
Yemen,15.15.175.207,1875,ustream.tv
Egypt,166.96.56.13,6648,cdc.gov
Iran,57.225.92.161,4473,bravesites.com
South Africa,223.143.175.181,593,vimeo.com
China,144.227.27.21,4795,google.com.au
Philippines,139.150.55.56,1598,state.gov
Russia,132.85.15.94,5711,joomla.org
Vietnam,192.240.195.85,5525,imdb.com
Thailand,61.79.226.74,9250,tmall.com
China,143.185.240.208,9929,amazonaws.com
China,31.96.132.126,4945,constantcontact.com
Dominican Republic,32.17.123.248,7085,feedburner.com
Poland,93.103.254.50,4939,hugedomains.com
China,206.177.103.235,1925,harvard.edu
Philippines,170.236.27.129,2721,histats.com
Uruguay,153.198.56.115,9646,cmu.edu
China,35.50.223.220,9902,delicious.com
Portugal,11.0.162.139,5532,dagondesign.com
China,150.115.161.43,2225,youtu.be
Russia,97.208.165.146,7738,ycombinator.com
Japan,240.245.30.60,7493,ameblo.jp
Argentina,57.120.102.146,190,smh.com.au
Ukraine,42.116.57.12,3723,squidoo.com
Indonesia,179.60.16.92,3007,cnn.com
Guatemala,152.106.146.99,6518,vinaora.com
China,100.17.83.83,1537,mapy.cz
Indonesia,242.36.113.213,6705,skype.com
Ukraine,234.92.57.95,5874,bluehost.com
Argentina,66.14.87.137,7734,google.pl
Russia,48.41.70.138,8317,hubpages.com
Ireland,71.153.129.216,8999,europa.eu
Sweden,224.115.200.124,8344,acquirethisname.com
China,118.21.100.56,5181,spiegel.de
Brazil,190.117.251.135,7141,sina.com.cn
Brazil,205.116.231.190,4031,dion.ne.jp
Vietnam,231.84.0.91,2714,slideshare.net
Serbia,182.38.82.205,7972,walmart.com
Russia,195.74.60.140,353,cornell.edu
Russia,50.132.51.163,1101,newyorker.com
Peru,4.155.241.195,6601,phpbb.com
Austria,228.20.52.230,6783,cdbaby.com
Ireland,247.158.69.55,8869,linkedin.com
China,199.78.237.246,9395,alexa.com
Kazakhstan,117.16.12.227,9343,cyberchimps.com
Poland,8.106.238.13,8080,creativecommons.org
Sweden,211.185.1.132,7678,cdc.gov
France,51.162.69.174,4457,blog.com
Bosnia and Herzegovina,83.176.17.166,3679,slideshare.net
Canada,188.210.90.148,1286,goodreads.com
Ukraine,40.144.190.65,8951,ow.ly
Russia,56.240.17.213,2981,blinklist.com
Haiti,97.100.200.152,8570,acquirethisname.com
Comoros,215.158.16.173,5193,ask.com
China,179.92.240.133,6896,e-recht24.de
France,146.50.220.180,5628,netvibes.com
Sweden,26.249.43.21,6812,theguardian.com
Estonia,31.184.117.97,9459,tiny.cc
Indonesia,25.13.66.156,6154,simplemachines.org
France,146.248.169.43,7404,huffingtonpost.com
China,80.97.234.28,4335,businesswire.com
China,162.48.165.189,4515,bluehost.com
Indonesia,202.181.140.193,7104,time.com
Finland,72.198.64.238,4651,biglobe.ne.jp
Indonesia,242.8.253.221,2214,biglobe.ne.jp
Russia,20.36.179.32,9030,telegraph.co.uk
Portugal,119.58.124.236,4681,cornell.edu
Peru,153.147.236.206,3317,accuweather.com
China,146.239.190.153,8930,scientificamerican.com
Greece,83.228.134.218,4419,cisco.com
Indonesia,171.33.7.174,1922,jugem.jp
Honduras,180.206.124.197,6971,oaic.gov.au
United States,43.194.48.230,3309,unc.edu
Laos,24.109.221.198,4587,abc.net.au
Serbia,90.72.255.106,8563,squidoo.com
Malaysia,228.16.15.86,187,salon.com
Colombia,247.232.132.40,3370,google.it
Netherlands,212.156.202.95,6938,newyorker.com
Sweden,190.161.157.254,8614,smugmug.com
Greece,243.213.136.7,5617,merriam-webster.com
China,23.7.13.88,1790,slashdot.org
Ukraine,164.132.121.99,9184,newyorker.com
France,125.111.58.56,5562,washington.edu
China,94.217.50.24,8126,mashable.com
Indonesia,245.17.56.62,4438,blogspot.com
Philippines,87.85.254.141,987,sun.com
Indonesia,197.132.185.142,562,ed.gov
Czech Republic,236.72.53.84,776,cbslocal.com
Ireland,1.100.57.92,4629,bing.com
Poland,153.81.12.203,8215,soundcloud.com
Sweden,65.122.96.5,344,businesswire.com
Honduras,203.209.13.243,2969,phoca.cz
Sweden,216.18.45.163,380,naver.com
Ukraine,84.237.179.197,1611,cnn.com
Czech Republic,174.136.170.201,2911,home.pl
Finland,110.194.250.246,9929,tinypic.com
Colombia,19.175.76.139,4112,kickstarter.com
France,245.185.87.6,5212,google.com.au
China,132.59.41.192,1340,deviantart.com
Germany,99.250.68.137,8661,arstechnica.com
Peru,200.77.44.58,1812,techcrunch.com
Egypt,29.171.214.98,4719,zdnet.com
Poland,71.208.15.168,6581,ucoz.com
Portugal,71.118.117.210,2446,geocities.com
Tajikistan,251.162.198.243,6400,trellian.com
China,93.192.147.58,272,squidoo.com
Bangladesh,64.240.149.9,4132,walmart.com
China,112.48.32.247,8716,free.fr
Indonesia,248.219.97.123,768,t.co
Indonesia,102.112.252.173,7119,sfgate.com
Yemen,220.156.175.70,6444,prlog.org
China,150.128.46.183,144,usgs.gov
Indonesia,190.72.132.236,8258,dmoz.org
Portugal,234.31.196.66,3076,opera.com
Indonesia,236.209.90.244,6535,goo.gl
Liberia,192.100.248.3,820,cornell.edu
China,123.0.230.154,2169,multiply.com
China,204.32.131.219,803,ibm.com
Yemen,124.44.117.46,3450,opera.com
Philippines,9.78.211.236,2483,unc.edu
Russia,221.58.164.213,7541,addthis.com
Portugal,215.243.79.68,719,constantcontact.com
Serbia,170.33.16.12,4305,mediafire.com
China,118.179.12.131,816,usgs.gov
Croatia,14.39.10.102,1123,exblog.jp
Japan,98.124.225.121,6002,umn.edu
Indonesia,186.221.135.112,3549,tinyurl.com
Thailand,188.150.75.133,6553,ftc.gov
Sweden,223.61.0.161,8221,buzzfeed.com
Russia,114.124.120.55,2883,people.com.cn
Indonesia,226.204.91.101,963,feedburner.com
Ivory Coast,51.170.58.78,1348,t.co
Yemen,170.146.180.75,426,rediff.com
Ukraine,196.54.180.141,9416,imgur.com
Portugal,177.142.246.4,6046,psu.edu
Indonesia,251.132.180.150,7604,acquirethisname.com
Indonesia,115.146.196.218,7783,networksolutions.com
China,234.228.95.8,5468,sbwire.com
France,23.183.124.241,765,wired.com
Greece,200.92.245.243,8040,techcrunch.com
Indonesia,128.26.168.191,4637,ucla.edu
Argentina,128.14.124.237,6888,pbs.org
Belarus,145.125.18.154,8864,mapquest.com
Indonesia,147.83.217.31,8204,nytimes.com
Argentina,225.227.204.6,1684,telegraph.co.uk
Pakistan,251.234.153.27,7823,huffingtonpost.com
China,252.238.59.26,9751,bizjournals.com
Macedonia,51.241.251.47,1463,nymag.com
China,180.0.185.113,8367,theglobeandmail.com
China,7.201.160.33,9470,skype.com
China,191.136.196.28,4293,free.fr
United States,4.213.189.39,6800,blogs.com
Syria,223.69.54.121,8186,zimbio.com
Sri Lanka,125.166.179.236,1929,seesaa.net
Nigeria,26.65.72.5,6220,census.gov
Greece,228.182.41.91,482,china.com.cn
United States,94.161.204.213,8892,google.ru
Bangladesh,147.169.73.183,2000,symantec.com
Germany,153.95.246.94,5439,fastcompany.com
China,255.17.236.85,7008,vimeo.com
China,139.160.182.153,2788,cnet.com
China,70.239.43.88,6141,g.co
Indonesia,11.186.174.126,4392,etsy.com
China,43.39.66.254,9702,typepad.com
Greece,97.125.173.203,9420,gnu.org
Czech Republic,192.139.67.94,6044,noaa.gov
Indonesia,91.89.78.108,1276,phoca.cz
Tajikistan,114.238.8.120,6399,eepurl.com
Russia,42.46.164.160,3973,trellian.com
Micronesia,10.181.93.255,5537,accuweather.com
Philippines,146.56.122.144,3403,adobe.com
Netherlands,189.11.247.248,3061,symantec.com
Philippines,128.1.191.136,5228,dagondesign.com
Russia,92.126.100.208,3055,seesaa.net
Greece,252.35.86.114,3182,wp.com
Peru,74.91.89.24,1028,constantcontact.com
Israel,226.142.9.60,3927,ameblo.jp
Indonesia,180.41.214.187,9096,independent.co.uk
Peru,247.237.99.202,2865,hubpages.com
Poland,231.206.181.83,2074,reference.com
China,183.13.218.107,8093,edublogs.org
Costa Rica,85.163.18.27,2379,webeden.co.uk
Indonesia,171.175.68.173,8340,cdc.gov
El Salvador,63.70.66.123,9379,geocities.com
Ukraine,232.71.168.194,4898,nhs.uk
Egypt,133.98.37.26,9797,tinypic.com
Indonesia,55.112.179.40,5223,examiner.com
Japan,163.56.130.237,1773,ehow.com
Thailand,143.244.183.242,2462,etsy.com
Canada,103.185.95.177,2204,redcross.org
Indonesia,156.104.213.128,6015,unicef.org
Afghanistan,49.193.168.27,8616,freewebs.com
Peru,117.199.177.149,4196,nydailynews.com
Philippines,45.56.97.178,9675,blogs.com
Honduras,234.245.251.173,6637,earthlink.net
Sweden,16.199.101.105,1086,so-net.ne.jp
Canada,175.253.146.145,6955,webmd.com
Sweden,167.253.61.164,5286,google.ru
Cuba,164.173.248.80,3814,mozilla.com
Brazil,69.171.145.243,3447,ifeng.com
Indonesia,25.28.204.249,2398,over-blog.com
Philippines,216.220.164.38,4087,clickbank.net
Portugal,16.249.218.122,1141,jimdo.com
Russia,18.191.191.151,4370,webs.com
Sweden,248.176.118.48,6717,ucsd.edu
Tajikistan,221.109.253.169,1400,eepurl.com
China,192.185.40.124,7582,eventbrite.com
Burkina Faso,70.64.79.4,6579,spiegel.de
Jordan,37.67.20.79,5029,newsvine.com
Syria,157.185.6.219,6937,telegraph.co.uk
Russia,30.172.189.2,3679,domainmarket.com
Uzbekistan,218.208.97.168,9332,wired.com
Ukraine,206.229.68.133,9711,artisteer.com
Czech Republic,95.248.165.21,8695,twitpic.com
Bangladesh,151.212.240.163,6367,mit.edu
Thailand,250.19.3.57,6346,businessweek.com
Russia,23.238.41.164,2023,booking.com
Indonesia,149.113.192.193,4958,example.com
China,108.114.10.27,5033,about.me
Latvia,166.62.207.21,5267,goo.gl
Bolivia,106.122.59.77,7992,bloglovin.com
Brazil,119.202.28.128,9687,phoca.cz
Indonesia,13.124.92.12,1408,google.ca
Sri Lanka,212.227.245.121,2456,wikipedia.org
China,19.50.243.190,9041,engadget.com
China,178.166.171.163,6237,sciencedaily.com
China,22.0.16.61,9826,boston.com
China,223.191.15.49,8643,dyndns.org
China,184.219.1.239,16,dailymail.co.uk
Armenia,90.127.250.240,475,edublogs.org
Venezuela,129.178.118.182,6896,technorati.com
Poland,167.98.140.59,105,ucsd.edu
Peru,192.3.208.14,6351,irs.gov
Macedonia,7.100.78.217,2899,yandex.ru
Armenia,155.155.109.37,1571,eventbrite.com
France,222.35.25.251,4158,techcrunch.com
Colombia,171.84.243.243,6965,smugmug.com
Colombia,218.139.102.172,7602,moonfruit.com
Philippines,123.165.42.17,2376,cafepress.com
Czech Republic,136.59.253.53,1636,plala.or.jp
Sweden,129.150.194.129,9216,blogger.com
Philippines,32.245.7.166,857,booking.com
Portugal,176.92.0.68,5834,webnode.com
Brazil,189.225.26.213,6414,soundcloud.com
Portugal,159.95.51.254,6972,wiley.com
Portugal,195.231.154.94,19,printfriendly.com
Indonesia,212.152.168.114,5176,ask.com
China,250.240.238.133,1283,psu.edu
New Caledonia,113.51.117.124,8053,studiopress.com
Honduras,143.133.53.32,3268,zdnet.com
Vietnam,147.40.37.43,6602,twitpic.com
Russia,244.32.192.141,7573,furl.net
Nigeria,185.111.9.235,39,phoca.cz
China,29.182.149.94,8127,blogtalkradio.com
Syria,201.104.7.117,6555,ucsd.edu
Lithuania,208.54.217.123,8736,baidu.com
Russia,207.187.191.122,4473,constantcontact.com
Macedonia,254.71.73.190,9704,aol.com
China,49.148.26.143,6427,usatoday.com
Vietnam,151.80.192.15,6465,soup.io
Pakistan,167.207.57.23,8137,biblegateway.com
China,213.60.166.236,3759,ucsd.edu
Philippines,219.153.84.197,6003,google.es
Cameroon,90.213.80.142,2277,ameblo.jp
Poland,50.222.78.73,3571,gmpg.org
China,54.75.160.44,3794,newsvine.com
Israel,172.44.86.16,1982,comcast.net
Sweden,69.151.214.138,9231,hostgator.com
Peru,14.231.3.210,4516,51.la
Brazil,13.100.215.228,325,usnews.com
United States,45.109.104.175,686,sfgate.com
Bulgaria,112.242.62.224,508,domainmarket.com
China,146.229.12.243,7535,wikipedia.org
United States,164.229.175.16,5297,google.it
Portugal,131.82.180.32,8873,adobe.com
Russia,29.212.126.31,5552,domainmarket.com
United States,10.75.29.16,6057,meetup.com
China,237.147.61.86,4847,sitemeter.com
Indonesia,198.131.41.146,1194,youtu.be
Philippines,211.226.201.132,9031,twitter.com
Bosnia and Herzegovina,113.98.113.22,5360,weebly.com
Poland,223.112.168.152,9610,sakura.ne.jp
China,129.39.201.166,7240,jigsy.com
China,149.11.127.237,4789,1und1.de
China,105.223.232.166,3046,examiner.com
Netherlands,55.149.203.134,8892,wikipedia.org
China,239.188.191.88,1184,sohu.com
Indonesia,76.122.85.196,7336,tinypic.com
Serbia,242.142.13.32,6243,nifty.com
Indonesia,57.253.191.253,6445,histats.com
China,207.170.126.215,4155,un.org
China,158.72.136.28,7619,china.com.cn
Brazil,58.139.69.165,1913,usnews.com
Dominican Republic,244.41.106.73,7109,walmart.com
France,151.238.233.205,675,cornell.edu
China,212.62.3.177,5107,cyberchimps.com
Peru,119.89.192.160,1304,123-reg.co.uk
Indonesia,171.23.2.26,194,biblegateway.com
Philippines,0.26.252.152,1795,upenn.edu
Iran,193.229.223.180,1886,admin.ch
Poland,192.216.185.199,8918,soundcloud.com
Sweden,156.145.28.88,8737,globo.com
Indonesia,78.186.198.235,2280,skype.com
Ireland,154.144.44.117,8059,fastcompany.com
Kazakhstan,146.68.191.210,3130,npr.org
Russia,50.172.92.34,2430,php.net
Indonesia,59.14.33.34,5733,slideshare.net
China,82.117.61.241,5556,blogger.com
China,55.220.112.35,7371,storify.com
China,40.225.142.41,4564,rediff.com
Thailand,127.119.95.46,4563,example.com
China,118.127.5.147,3863,elpais.com
China,45.200.192.158,4528,nyu.edu
Japan,139.133.35.58,928,gmpg.org
Argentina,246.116.170.111,3251,twitter.com
Palestinian Territory,51.31.49.62,9475,pbs.org
Portugal,87.151.68.45,1556,weather.com
Japan,129.17.232.138,4899,goo.ne.jp
Indonesia,227.80.161.246,6735,tamu.edu
Mali,26.189.62.128,8787,opensource.org
Tunisia,73.43.105.121,9229,intel.com
Spain,209.65.168.18,1017,naver.com
Brazil,64.128.8.67,322,dell.com
Saudi Arabia,11.74.69.110,3219,psu.edu
Sweden,69.29.218.73,381,accuweather.com
China,0.125.162.170,4416,cyberchimps.com
Honduras,92.115.252.208,3184,indiegogo.com
China,248.209.81.193,2541,tiny.cc
Portugal,24.8.44.166,714,bbb.org
Poland,193.167.167.251,8546,dyndns.org
Indonesia,196.79.163.237,2343,admin.ch
China,253.42.47.12,4415,barnesandnoble.com
Indonesia,21.168.71.205,1167,blogtalkradio.com
Mexico,205.190.166.62,821,pinterest.com
Brazil,87.164.226.255,3040,foxnews.com
Pakistan,199.128.165.132,1484,indiegogo.com
China,100.125.146.107,3800,chron.com
Nigeria,78.33.39.137,373,symantec.com
Brazil,163.122.169.155,2782,admin.ch
Czech Republic,69.109.107.188,8198,ifeng.com
Poland,54.103.95.65,1158,businessinsider.com
China,119.153.3.166,9046,samsung.com
China,235.216.242.21,8359,nsw.gov.au
Azerbaijan,34.219.248.53,7584,intel.com
Bangladesh,253.184.68.72,3920,usgs.gov
Portugal,196.212.168.177,3131,angelfire.com
Uzbekistan,210.29.181.134,6022,webnode.com
Pakistan,96.165.58.21,2626,cam.ac.uk
Indonesia,53.211.144.21,9138,yahoo.co.jp
Philippines,57.18.71.35,1710,columbia.edu
Democratic Republic of the Congo,22.8.141.84,1320,cdbaby.com
Norway,27.190.82.41,4169,google.ru
Indonesia,11.65.225.65,4609,de.vu
Indonesia,36.108.5.39,8775,opera.com
Brazil,241.218.79.94,5588,prnewswire.com
Philippines,55.51.222.230,7904,prlog.org
China,50.18.105.46,2969,bluehost.com
Indonesia,187.133.163.144,9372,ca.gov
Argentina,206.148.216.186,6431,accuweather.com
France,175.58.25.192,5953,nps.gov
Russia,208.89.243.23,8288,printfriendly.com
Israel,199.93.49.222,1515,list-manage.com
China,27.132.227.238,8315,wix.com
Morocco,151.97.80.177,6855,apache.org
Indonesia,130.51.246.196,2805,wikia.com
Venezuela,141.132.196.198,6246,hud.gov
Brazil,111.200.94.138,2271,redcross.org
Israel,83.69.145.239,8710,soup.io
China,242.192.189.52,1026,symantec.com
China,67.48.157.254,973,arstechnica.com
France,219.170.215.67,9440,acquirethisname.com
Sweden,154.1.239.219,6796,whitehouse.gov
Russia,254.6.71.209,7741,sakura.ne.jp
Indonesia,129.221.48.8,4351,posterous.com
Benin,214.151.128.221,1266,europa.eu
China,115.33.110.136,6393,naver.com
Armenia,212.212.135.55,2042,engadget.com
Portugal,75.87.161.87,9928,usa.gov
Nicaragua,225.168.210.228,3138,examiner.com
Indonesia,47.66.57.148,3621,umn.edu
Portugal,104.208.65.5,7975,lulu.com
Haiti,219.16.36.189,5639,npr.org
Burundi,230.117.100.244,143,multiply.com
Sweden,247.255.114.50,5807,hp.com
Philippines,156.105.231.114,9629,economist.com
Philippines,205.130.43.153,7189,soup.io
South Africa,223.55.171.23,4675,disqus.com
Portugal,129.62.206.137,8778,tmall.com
Indonesia,29.180.186.225,5347,nhs.uk
Indonesia,123.159.41.40,4407,pbs.org
